{
  "category": [
    {
      "id": 1,
      "name": "Basics"
    },
    {
      "id": 2,
      "name": "CSS"
    },
    {
      "id": 3,
      "name": "Javascript"
    },
    {
      "id": 4,
      "name": "Managers"
    }
  ]
}